{
    "platforms": [
        {
            "name": "newhome",
            "start_date": "2020-05-10T12:12:12",
            "end_date": "2020-06-10T12:12:12",
            "product": "NH-SP15"
        }
    ],
    "campaigns": [
        {
            "campaign_type": "apartment",
            "application_url": "http://www.fsr.ba",
            "project_id": "14",
            "apartment": {
                "reference_id": "1234",
                "type": "rent",
                "categories": ["apartment"],
                "author": "Marko Markovic",
                "availability": {
                    "value": "active",
                    "start": "2020-06-05T00:00:00"
                },
                "minergie_certification": "Minergie",
                "address": {
                    "country_code": "CH",
                    "locality": "Kirchlindach",
                    "region": "Bern",
                    "postal_code": "3038",
                    "post_office_box_number": "1",
                    "street": "Kralja Tomislava",
                    "street_number": "109",
                    "street_addition": "U centru grada",
                    "geo": {
                        "longitude": 46.9997266,
                        "latitude": 7.4107529
                    }
                },
                "characteristics": {
                    "area_bwf": 107,
                    "area_nwf": 92,
                    "volume_gva": 456,
                    "year_built": 2010,
                    "has_nice_view": "applies",
                    "has_fireplace": "applies",
                    "has_cable_tv": "applies",
                    "has_elevator": "applies",
                    "is_child_friendly": "applies",
                    "has_parking": "applies",
                    "has_garage": "applies",
                    "has_balcony": "applies",

                    "ceiling_height": 2.70,
                    "hall_height": 2.74,
                    "floor_load": 450,
                    "crane_capacity": 323,
                    "elevator_load": 300.7,

                    "is_wheelchair_accessible": "applies",

                    "has_ramp": "applies",
                    "has_lifting_platform": "applies",

                    "has_supply_water": "applies",
                    "has_supply_sewage": "applies",
                    "has_supply_power": "applies",
                    "has_supply_gas": "applies",

                    "number_of_floors": 2,
                    "year_last_renovated": 2020,
                    "has_flat_sharing_community": "applies",
                    "is_corner_house": "applies",
                    "is_middle_house": "applies",
                    "has_connected_building_land": "applies",
                    "has_garden_shed": "applies",
                    "is_ground_floor_raised": "applies",
                    "is_new_construction": "applies",
                    "is_old_building": "applies",

                    "is_under_roof": "applies",
                    "has_swimming_pool": "applies",

                    "number_of_rooms": 3.5,
                    "floor": 3,
                    "is_quiet": "applies",
                    "number_of_bathrooms": 2,
                    "number_of_apartements": 4
                },
                "prices": {
                    "currency": "EUR",
                    "rent": {
                        "gross": 1400,
                        "net": 1000,
                        "extra": 400,
                        "interval": "month"
                    }
                },
                "localizations": [
                    {
                        "lang": "en",
                        "name": "Dvosoban stan u Zagrebu",
                        "description": "Prodaje se jednosoban stan pogodan za mladu obitelj.",
                        "excerpt": "Lokacija stana je perfektna za obitelj. U blizini se nalazi skola i vrtić",
                        "events": [
                            {
                                "name": "Prva posjeta",
                                "start": "2020-05-13T12:12:12",
                                "end": "2020-05-13T15:12:12"
                            },
                            {
                                "name": "Druga posjeta",
                                "start": "2020-05-15T12:12:12",
                                "end": "2020-05-15T15:12:12"
                            }
                        ]
                    }
                ],
                "seller": {
                    "organization": {
                        "address": {
                            "street": "Kralja Tomislava",
                            "street_number": "109",
                            "postal_code": "88000",
                            "locality": "Mostar",
                            "country_code": "CH"
                        },
                        "legal_name": "e-Monitor",
                        "brand": "Nekretnine",
                        "email": "test@emonitor.ch",
                        "mobile": "+4178254657",
                        "phone": "4178254657"
                    },
                    "contact_person": {
                        "function": "Sale Manager",
                        "given_name": "Ivo",
                        "family_name": "Ivic"
                    },
                    "visit_person": {
                        "given_name": "Marko",
                        "family_name": "Markovic",
                        "phone": "323-123",
                        "email": "marko@emonitor.ch",
                        "note": "iza 14hh"
                    }
                }
            }
        }
    ]
}