{
    "id": "5df2692c31e248fb3f18c7b2",
    "name": "Moj apartman2",
    "bussines_id": "6654645747",
    "start_date": "2019-12-16 14:50:00+0200",
    "end_date": "2019-12-18 20:00:00+0200",
    "platforms": ["google"],
    "targeting": {
            "locations": [
                {
                    "locality": "Mostar",
                    "country": "BIH",
                    "postal_code": "88000"
                }
            ], 
            "languages": ["Serbian"],
            "keywords": ["rental","add"]
    },
    "budget": {
            "budget_optimization": "false",
            "currency": "EUR",
            "netto_budget": "100",
            "app_percentage": "20",
            "brutto_budget": "120",
            "budget_distribution": {
                "facebook": [{
                    "percentage": "33.34",
                    "netto_price": "33.34",
                    "ad_type": "feed"
                }],
                "instagram": [{
                    "percentage": "33.34",
                    "netto_price": "33.34",
                    "ad_type": "feed"
                }],
                "google": [{
                    "percentage": "33.34",
                    "netto_price": "33.34",
                    "ad_type": "search"
                }]
            }
    },
    "ads": {
            "google": [{
                "ad_type": "search",
                "url": "https://sum.fsre.ba",
                "headline1": "FSR",
                "headline2": "Upisi",
                "headline3": "2018/2019",
                "descriptions": ["Biomedicinska informatika"]
            }],
            "facebook": [{
                "ad_type": "feed",
                "url": "https://www.pik.com",
                "title": "Berlin - facebook",
                "message": "Berlin",
                "descriptions": ["Apartmant for rental"],
                "marketing_images": ["https://goo.gl/3b9Wfh"]
            }],
            "instagram": [{
                "ad_type": "feed",
                "url": "https://www.pik.com",
                "message": "Berlin - instagram",
                "title": "Berlin",
                "marketing_images": ["https://goo.gl/3b9Wfh"],
                "descriptions": ["Ovo je opis instagram"]
            }]
    }
}
